{
  "project_info": {
    "project_number": "421535327263",
    "firebase_url": "https://iserveumainapp.firebaseio.com",
    "project_id": "iserveumainapp",
    "storage_bucket": "iserveumainapp.appspot.com"
  },
  "client": [
    {
      "client_info": {
        "mobilesdk_app_id": "1:421535327263:android:1bde090ef3831d95",
        "android_client_info": {
          "package_name": "com.aadrit.aadritpay"
        }
      },
      "oauth_client": [
        {
          "client_id": "421535327263-c69n08rn83cgjg9lbbd93c0vmmbfl4rd.apps.googleusercontent.com",
          "client_type": 3
        }
      ],
      "api_key": [
        {
          "current_key": "AIzaSyA5djkYQogDtP_HXSx6ZS8wB8BMZzH5z3Q"
        }
      ],
      "services": {
        "appinvite_service": {
          "other_platform_oauth_client": [
            {
              "client_id": "421535327263-c69n08rn83cgjg9lbbd93c0vmmbfl4rd.apps.googleusercontent.com",
              "client_type": 3
            }
          ]
        }
      }
    },
    {
      "client_info": {
        "mobilesdk_app_id": "1:421535327263:android:83e89379f50538eb",
        "android_client_info": {
          "package_name": "com.bank.bankyou"
        }
      },
      "oauth_client": [
        {
          "client_id": "421535327263-c69n08rn83cgjg9lbbd93c0vmmbfl4rd.apps.googleusercontent.com",
          "client_type": 3
        }
      ],
      "api_key": [
        {
          "current_key": "AIzaSyA5djkYQogDtP_HXSx6ZS8wB8BMZzH5z3Q"
        }
      ],
      "services": {
        "appinvite_service": {
          "other_platform_oauth_client": [
            {
              "client_id": "421535327263-c69n08rn83cgjg9lbbd93c0vmmbfl4rd.apps.googleusercontent.com",
              "client_type": 3
            }
          ]
        }
      }
    },
    {
      "client_info": {
        "mobilesdk_app_id": "1:421535327263:android:d85d1d5556ba6c76",
        "android_client_info": {
          "package_name": "com.bisani.bisanibrothers"
        }
      },
      "oauth_client": [
        {
          "client_id": "421535327263-c69n08rn83cgjg9lbbd93c0vmmbfl4rd.apps.googleusercontent.com",
          "client_type": 3
        }
      ],
      "api_key": [
        {
          "current_key": "AIzaSyA5djkYQogDtP_HXSx6ZS8wB8BMZzH5z3Q"
        }
      ],
      "services": {
        "appinvite_service": {
          "other_platform_oauth_client": [
            {
              "client_id": "421535327263-c69n08rn83cgjg9lbbd93c0vmmbfl4rd.apps.googleusercontent.com",
              "client_type": 3
            }
          ]
        }
      }
    },
    {
      "client_info": {
        "mobilesdk_app_id": "1:421535327263:android:7e8e50ce04ad6156",
        "android_client_info": {
          "package_name": "com.bomoney.bomoney"
        }
      },
      "oauth_client": [
        {
          "client_id": "421535327263-c69n08rn83cgjg9lbbd93c0vmmbfl4rd.apps.googleusercontent.com",
          "client_type": 3
        }
      ],
      "api_key": [
        {
          "current_key": "AIzaSyA5djkYQogDtP_HXSx6ZS8wB8BMZzH5z3Q"
        }
      ],
      "services": {
        "appinvite_service": {
          "other_platform_oauth_client": [
            {
              "client_id": "421535327263-c69n08rn83cgjg9lbbd93c0vmmbfl4rd.apps.googleusercontent.com",
              "client_type": 3
            }
          ]
        }
      }
    },
    {
      "client_info": {
        "mobilesdk_app_id": "1:421535327263:android:5462045cc69e8b5f",
        "android_client_info": {
          "package_name": "com.bring.bringpay"
        }
      },
      "oauth_client": [
        {
          "client_id": "421535327263-c69n08rn83cgjg9lbbd93c0vmmbfl4rd.apps.googleusercontent.com",
          "client_type": 3
        }
      ],
      "api_key": [
        {
          "current_key": "AIzaSyA5djkYQogDtP_HXSx6ZS8wB8BMZzH5z3Q"
        }
      ],
      "services": {
        "appinvite_service": {
          "other_platform_oauth_client": [
            {
              "client_id": "421535327263-c69n08rn83cgjg9lbbd93c0vmmbfl4rd.apps.googleusercontent.com",
              "client_type": 3
            }
          ]
        }
      }
    },
    {
      "client_info": {
        "mobilesdk_app_id": "1:421535327263:android:7d5687e36e17519c",
        "android_client_info": {
          "package_name": "com.cashand.cashand"
        }
      },
      "oauth_client": [
        {
          "client_id": "421535327263-c69n08rn83cgjg9lbbd93c0vmmbfl4rd.apps.googleusercontent.com",
          "client_type": 3
        }
      ],
      "api_key": [
        {
          "current_key": "AIzaSyA5djkYQogDtP_HXSx6ZS8wB8BMZzH5z3Q"
        }
      ],
      "services": {
        "appinvite_service": {
          "other_platform_oauth_client": [
            {
              "client_id": "421535327263-c69n08rn83cgjg9lbbd93c0vmmbfl4rd.apps.googleusercontent.com",
              "client_type": 3
            }
          ]
        }
      }
    },
    {
      "client_info": {
        "mobilesdk_app_id": "1:421535327263:android:d7d75c40c1054b35",
        "android_client_info": {
          "package_name": "com.cashnear.cashnear"
        }
      },
      "oauth_client": [
        {
          "client_id": "421535327263-c69n08rn83cgjg9lbbd93c0vmmbfl4rd.apps.googleusercontent.com",
          "client_type": 3
        }
      ],
      "api_key": [
        {
          "current_key": "AIzaSyA5djkYQogDtP_HXSx6ZS8wB8BMZzH5z3Q"
        }
      ],
      "services": {
        "appinvite_service": {
          "other_platform_oauth_client": [
            {
              "client_id": "421535327263-c69n08rn83cgjg9lbbd93c0vmmbfl4rd.apps.googleusercontent.com",
              "client_type": 3
            }
          ]
        }
      }
    },
    {
      "client_info": {
        "mobilesdk_app_id": "1:421535327263:android:e3d32198a0a36c8c",
        "android_client_info": {
          "package_name": "com.csppsp.csppsp"
        }
      },
      "oauth_client": [
        {
          "client_id": "421535327263-c69n08rn83cgjg9lbbd93c0vmmbfl4rd.apps.googleusercontent.com",
          "client_type": 3
        }
      ],
      "api_key": [
        {
          "current_key": "AIzaSyA5djkYQogDtP_HXSx6ZS8wB8BMZzH5z3Q"
        }
      ],
      "services": {
        "appinvite_service": {
          "other_platform_oauth_client": [
            {
              "client_id": "421535327263-c69n08rn83cgjg9lbbd93c0vmmbfl4rd.apps.googleusercontent.com",
              "client_type": 3
            }
          ]
        }
      }
    },
    {
      "client_info": {
        "mobilesdk_app_id": "1:421535327263:android:ce3efbf5c50ebe23",
        "android_client_info": {
          "package_name": "com.cyrus.cyrusbion"
        }
      },
      "oauth_client": [
        {
          "client_id": "421535327263-c69n08rn83cgjg9lbbd93c0vmmbfl4rd.apps.googleusercontent.com",
          "client_type": 3
        }
      ],
      "api_key": [
        {
          "current_key": "AIzaSyA5djkYQogDtP_HXSx6ZS8wB8BMZzH5z3Q"
        }
      ],
      "services": {
        "appinvite_service": {
          "other_platform_oauth_client": [
            {
              "client_id": "421535327263-c69n08rn83cgjg9lbbd93c0vmmbfl4rd.apps.googleusercontent.com",
              "client_type": 3
            }
          ]
        }
      }
    },
    {
      "client_info": {
        "mobilesdk_app_id": "1:421535327263:android:eb3a265a66316fcd",
        "android_client_info": {
          "package_name": "com.digital.digitalpaymentsolutions"
        }
      },
      "oauth_client": [
        {
          "client_id": "421535327263-c69n08rn83cgjg9lbbd93c0vmmbfl4rd.apps.googleusercontent.com",
          "client_type": 3
        }
      ],
      "api_key": [
        {
          "current_key": "AIzaSyA5djkYQogDtP_HXSx6ZS8wB8BMZzH5z3Q"
        }
      ],
      "services": {
        "appinvite_service": {
          "other_platform_oauth_client": [
            {
              "client_id": "421535327263-c69n08rn83cgjg9lbbd93c0vmmbfl4rd.apps.googleusercontent.com",
              "client_type": 3
            }
          ]
        }
      }
    },
    {
      "client_info": {
        "mobilesdk_app_id": "1:421535327263:android:39ea9bcae85635e6",
        "android_client_info": {
          "package_name": "com.digitalpayy.digitalpayyaeps"
        }
      },
      "oauth_client": [
        {
          "client_id": "421535327263-c69n08rn83cgjg9lbbd93c0vmmbfl4rd.apps.googleusercontent.com",
          "client_type": 3
        }
      ],
      "api_key": [
        {
          "current_key": "AIzaSyA5djkYQogDtP_HXSx6ZS8wB8BMZzH5z3Q"
        }
      ],
      "services": {
        "appinvite_service": {
          "other_platform_oauth_client": [
            {
              "client_id": "421535327263-c69n08rn83cgjg9lbbd93c0vmmbfl4rd.apps.googleusercontent.com",
              "client_type": 3
            }
          ]
        }
      }
    },
    {
      "client_info": {
        "mobilesdk_app_id": "1:421535327263:android:07161f04adf05beb",
        "android_client_info": {
          "package_name": "com.digitalrojgar.digitalrojgaryojna"
        }
      },
      "oauth_client": [
        {
          "client_id": "421535327263-c69n08rn83cgjg9lbbd93c0vmmbfl4rd.apps.googleusercontent.com",
          "client_type": 3
        }
      ],
      "api_key": [
        {
          "current_key": "AIzaSyA5djkYQogDtP_HXSx6ZS8wB8BMZzH5z3Q"
        }
      ],
      "services": {
        "appinvite_service": {
          "other_platform_oauth_client": [
            {
              "client_id": "421535327263-c69n08rn83cgjg9lbbd93c0vmmbfl4rd.apps.googleusercontent.com",
              "client_type": 3
            }
          ]
        }
      }
    },
    {
      "client_info": {
        "mobilesdk_app_id": "1:421535327263:android:397ced3f63528ff7",
        "android_client_info": {
          "package_name": "com.dseva.smartdigiseva"
        }
      },
      "oauth_client": [
        {
          "client_id": "421535327263-c69n08rn83cgjg9lbbd93c0vmmbfl4rd.apps.googleusercontent.com",
          "client_type": 3
        }
      ],
      "api_key": [
        {
          "current_key": "AIzaSyA5djkYQogDtP_HXSx6ZS8wB8BMZzH5z3Q"
        }
      ],
      "services": {
        "appinvite_service": {
          "other_platform_oauth_client": [
            {
              "client_id": "421535327263-c69n08rn83cgjg9lbbd93c0vmmbfl4rd.apps.googleusercontent.com",
              "client_type": 3
            }
          ]
        }
      }
    },
    {
      "client_info": {
        "mobilesdk_app_id": "1:421535327263:android:37f8528bdf546c5f",
        "android_client_info": {
          "package_name": "com.easycash.easycashpe"
        }
      },
      "oauth_client": [
        {
          "client_id": "421535327263-c69n08rn83cgjg9lbbd93c0vmmbfl4rd.apps.googleusercontent.com",
          "client_type": 3
        }
      ],
      "api_key": [
        {
          "current_key": "AIzaSyA5djkYQogDtP_HXSx6ZS8wB8BMZzH5z3Q"
        }
      ],
      "services": {
        "appinvite_service": {
          "other_platform_oauth_client": [
            {
              "client_id": "421535327263-c69n08rn83cgjg9lbbd93c0vmmbfl4rd.apps.googleusercontent.com",
              "client_type": 3
            }
          ]
        }
      }
    },
    {
      "client_info": {
        "mobilesdk_app_id": "1:421535327263:android:6675d61d0871aed1",
        "android_client_info": {
          "package_name": "com.easycash.easycashpoint"
        }
      },
      "oauth_client": [
        {
          "client_id": "421535327263-c69n08rn83cgjg9lbbd93c0vmmbfl4rd.apps.googleusercontent.com",
          "client_type": 3
        }
      ],
      "api_key": [
        {
          "current_key": "AIzaSyA5djkYQogDtP_HXSx6ZS8wB8BMZzH5z3Q"
        }
      ],
      "services": {
        "appinvite_service": {
          "other_platform_oauth_client": [
            {
              "client_id": "421535327263-c69n08rn83cgjg9lbbd93c0vmmbfl4rd.apps.googleusercontent.com",
              "client_type": 3
            }
          ]
        }
      }
    },
    {
      "client_info": {
        "mobilesdk_app_id": "1:421535327263:android:bb394ddf9cd9a7db",
        "android_client_info": {
          "package_name": "com.ebank.ebankpoint"
        }
      },
      "oauth_client": [
        {
          "client_id": "421535327263-c69n08rn83cgjg9lbbd93c0vmmbfl4rd.apps.googleusercontent.com",
          "client_type": 3
        }
      ],
      "api_key": [
        {
          "current_key": "AIzaSyA5djkYQogDtP_HXSx6ZS8wB8BMZzH5z3Q"
        }
      ],
      "services": {
        "appinvite_service": {
          "other_platform_oauth_client": [
            {
              "client_id": "421535327263-c69n08rn83cgjg9lbbd93c0vmmbfl4rd.apps.googleusercontent.com",
              "client_type": 3
            }
          ]
        }
      }
    },
    {
      "client_info": {
        "mobilesdk_app_id": "1:421535327263:android:cc823a69e42d2058",
        "android_client_info": {
          "package_name": "com.emitra.emitrahub"
        }
      },
      "oauth_client": [
        {
          "client_id": "421535327263-c69n08rn83cgjg9lbbd93c0vmmbfl4rd.apps.googleusercontent.com",
          "client_type": 3
        }
      ],
      "api_key": [
        {
          "current_key": "AIzaSyA5djkYQogDtP_HXSx6ZS8wB8BMZzH5z3Q"
        }
      ],
      "services": {
        "appinvite_service": {
          "other_platform_oauth_client": [
            {
              "client_id": "421535327263-c69n08rn83cgjg9lbbd93c0vmmbfl4rd.apps.googleusercontent.com",
              "client_type": 3
            }
          ]
        }
      }
    },
    {
      "client_info": {
        "mobilesdk_app_id": "1:421535327263:android:a7d9d02fee114cf6",
        "android_client_info": {
          "package_name": "com.fantacy.fantacyworld"
        }
      },
      "oauth_client": [
        {
          "client_id": "421535327263-c69n08rn83cgjg9lbbd93c0vmmbfl4rd.apps.googleusercontent.com",
          "client_type": 3
        }
      ],
      "api_key": [
        {
          "current_key": "AIzaSyA5djkYQogDtP_HXSx6ZS8wB8BMZzH5z3Q"
        }
      ],
      "services": {
        "appinvite_service": {
          "other_platform_oauth_client": [
            {
              "client_id": "421535327263-c69n08rn83cgjg9lbbd93c0vmmbfl4rd.apps.googleusercontent.com",
              "client_type": 3
            }
          ]
        }
      }
    },
    {
      "client_info": {
        "mobilesdk_app_id": "1:421535327263:android:b6b798289e6c21a1",
        "android_client_info": {
          "package_name": "com.fastpay.fastpaydigital"
        }
      },
      "oauth_client": [
        {
          "client_id": "421535327263-c69n08rn83cgjg9lbbd93c0vmmbfl4rd.apps.googleusercontent.com",
          "client_type": 3
        }
      ],
      "api_key": [
        {
          "current_key": "AIzaSyA5djkYQogDtP_HXSx6ZS8wB8BMZzH5z3Q"
        }
      ],
      "services": {
        "appinvite_service": {
          "other_platform_oauth_client": [
            {
              "client_id": "421535327263-c69n08rn83cgjg9lbbd93c0vmmbfl4rd.apps.googleusercontent.com",
              "client_type": 3
            }
          ]
        }
      }
    },
    {
      "client_info": {
        "mobilesdk_app_id": "1:421535327263:android:13e3c644cf65429e",
        "android_client_info": {
          "package_name": "com.finwy.finwy"
        }
      },
      "oauth_client": [
        {
          "client_id": "421535327263-c69n08rn83cgjg9lbbd93c0vmmbfl4rd.apps.googleusercontent.com",
          "client_type": 3
        }
      ],
      "api_key": [
        {
          "current_key": "AIzaSyA5djkYQogDtP_HXSx6ZS8wB8BMZzH5z3Q"
        }
      ],
      "services": {
        "appinvite_service": {
          "other_platform_oauth_client": [
            {
              "client_id": "421535327263-c69n08rn83cgjg9lbbd93c0vmmbfl4rd.apps.googleusercontent.com",
              "client_type": 3
            }
          ]
        }
      }
    },
    {
      "client_info": {
        "mobilesdk_app_id": "1:421535327263:android:4376b9868b99816f",
        "android_client_info": {
          "package_name": "com.friends.friendspay"
        }
      },
      "oauth_client": [
        {
          "client_id": "421535327263-c69n08rn83cgjg9lbbd93c0vmmbfl4rd.apps.googleusercontent.com",
          "client_type": 3
        }
      ],
      "api_key": [
        {
          "current_key": "AIzaSyA5djkYQogDtP_HXSx6ZS8wB8BMZzH5z3Q"
        }
      ],
      "services": {
        "appinvite_service": {
          "other_platform_oauth_client": [
            {
              "client_id": "421535327263-c69n08rn83cgjg9lbbd93c0vmmbfl4rd.apps.googleusercontent.com",
              "client_type": 3
            }
          ]
        }
      }
    },
    {
      "client_info": {
        "mobilesdk_app_id": "1:421535327263:android:64b9f4c9383c7317",
        "android_client_info": {
          "package_name": "com.greenpay.greenpayindia"
        }
      },
      "oauth_client": [
        {
          "client_id": "421535327263-c69n08rn83cgjg9lbbd93c0vmmbfl4rd.apps.googleusercontent.com",
          "client_type": 3
        }
      ],
      "api_key": [
        {
          "current_key": "AIzaSyA5djkYQogDtP_HXSx6ZS8wB8BMZzH5z3Q"
        }
      ],
      "services": {
        "appinvite_service": {
          "other_platform_oauth_client": [
            {
              "client_id": "421535327263-c69n08rn83cgjg9lbbd93c0vmmbfl4rd.apps.googleusercontent.com",
              "client_type": 3
            }
          ]
        }
      }
    },
    {
      "client_info": {
        "mobilesdk_app_id": "1:421535327263:android:f8bec55575e60a4d",
        "android_client_info": {
          "package_name": "com.haritech.haritech"
        }
      },
      "oauth_client": [
        {
          "client_id": "421535327263-c69n08rn83cgjg9lbbd93c0vmmbfl4rd.apps.googleusercontent.com",
          "client_type": 3
        }
      ],
      "api_key": [
        {
          "current_key": "AIzaSyA5djkYQogDtP_HXSx6ZS8wB8BMZzH5z3Q"
        }
      ],
      "services": {
        "appinvite_service": {
          "other_platform_oauth_client": [
            {
              "client_id": "421535327263-c69n08rn83cgjg9lbbd93c0vmmbfl4rd.apps.googleusercontent.com",
              "client_type": 3
            }
          ]
        }
      }
    },
    {
      "client_info": {
        "mobilesdk_app_id": "1:421535327263:android:12cf0ea7bac643a0",
        "android_client_info": {
          "package_name": "com.ijust.ijustpay"
        }
      },
      "oauth_client": [
        {
          "client_id": "421535327263-c69n08rn83cgjg9lbbd93c0vmmbfl4rd.apps.googleusercontent.com",
          "client_type": 3
        }
      ],
      "api_key": [
        {
          "current_key": "AIzaSyA5djkYQogDtP_HXSx6ZS8wB8BMZzH5z3Q"
        }
      ],
      "services": {
        "appinvite_service": {
          "other_platform_oauth_client": [
            {
              "client_id": "421535327263-c69n08rn83cgjg9lbbd93c0vmmbfl4rd.apps.googleusercontent.com",
              "client_type": 3
            }
          ]
        }
      }
    },
    {
      "client_info": {
        "mobilesdk_app_id": "1:421535327263:android:7052ee9a0dca6b4d",
        "android_client_info": {
          "package_name": "com.instant.instantpayments"
        }
      },
      "oauth_client": [
        {
          "client_id": "421535327263-c69n08rn83cgjg9lbbd93c0vmmbfl4rd.apps.googleusercontent.com",
          "client_type": 3
        }
      ],
      "api_key": [
        {
          "current_key": "AIzaSyA5djkYQogDtP_HXSx6ZS8wB8BMZzH5z3Q"
        }
      ],
      "services": {
        "appinvite_service": {
          "other_platform_oauth_client": [
            {
              "client_id": "421535327263-c69n08rn83cgjg9lbbd93c0vmmbfl4rd.apps.googleusercontent.com",
              "client_type": 3
            }
          ]
        }
      }
    },
    {
      "client_info": {
        "mobilesdk_app_id": "1:421535327263:android:9677c37d4a9279f2",
        "android_client_info": {
          "package_name": "com.iserve.iservepay"
        }
      },
      "oauth_client": [
        {
          "client_id": "421535327263-c69n08rn83cgjg9lbbd93c0vmmbfl4rd.apps.googleusercontent.com",
          "client_type": 3
        }
      ],
      "api_key": [
        {
          "current_key": "AIzaSyA5djkYQogDtP_HXSx6ZS8wB8BMZzH5z3Q"
        }
      ],
      "services": {
        "appinvite_service": {
          "other_platform_oauth_client": [
            {
              "client_id": "421535327263-c69n08rn83cgjg9lbbd93c0vmmbfl4rd.apps.googleusercontent.com",
              "client_type": 3
            }
          ]
        }
      }
    },
    {
      "client_info": {
        "mobilesdk_app_id": "1:421535327263:android:f007f4ae59301a37",
        "android_client_info": {
          "package_name": "com.iserveu.aeps"
        }
      },
      "oauth_client": [
        {
          "client_id": "421535327263-c69n08rn83cgjg9lbbd93c0vmmbfl4rd.apps.googleusercontent.com",
          "client_type": 3
        }
      ],
      "api_key": [
        {
          "current_key": "AIzaSyA5djkYQogDtP_HXSx6ZS8wB8BMZzH5z3Q"
        }
      ],
      "services": {
        "appinvite_service": {
          "other_platform_oauth_client": [
            {
              "client_id": "421535327263-c69n08rn83cgjg9lbbd93c0vmmbfl4rd.apps.googleusercontent.com",
              "client_type": 3
            }
          ]
        }
      }
    },
    {
      "client_info": {
        "mobilesdk_app_id": "1:421535327263:android:9548b1486aee988b",
        "android_client_info": {
          "package_name": "com.iserveu.iserveu"
        }
      },
      "oauth_client": [
        {
          "client_id": "421535327263-c69n08rn83cgjg9lbbd93c0vmmbfl4rd.apps.googleusercontent.com",
          "client_type": 3
        }
      ],
      "api_key": [
        {
          "current_key": "AIzaSyA5djkYQogDtP_HXSx6ZS8wB8BMZzH5z3Q"
        }
      ],
      "services": {
        "appinvite_service": {
          "other_platform_oauth_client": [
            {
              "client_id": "421535327263-c69n08rn83cgjg9lbbd93c0vmmbfl4rd.apps.googleusercontent.com",
              "client_type": 3
            }
          ]
        }
      }
    },
    {
      "client_info": {
        "mobilesdk_app_id": "1:421535327263:android:3d494f6f5a31819f",
        "android_client_info": {
          "package_name": "com.isewa.isewa"
        }
      },
      "oauth_client": [
        {
          "client_id": "421535327263-c69n08rn83cgjg9lbbd93c0vmmbfl4rd.apps.googleusercontent.com",
          "client_type": 3
        }
      ],
      "api_key": [
        {
          "current_key": "AIzaSyA5djkYQogDtP_HXSx6ZS8wB8BMZzH5z3Q"
        }
      ],
      "services": {
        "appinvite_service": {
          "other_platform_oauth_client": [
            {
              "client_id": "421535327263-c69n08rn83cgjg9lbbd93c0vmmbfl4rd.apps.googleusercontent.com",
              "client_type": 3
            }
          ]
        }
      }
    },
    {
      "client_info": {
        "mobilesdk_app_id": "1:421535327263:android:ab401d3a6a1b2155",
        "android_client_info": {
          "package_name": "com.krac.krac"
        }
      },
      "oauth_client": [
        {
          "client_id": "421535327263-c69n08rn83cgjg9lbbd93c0vmmbfl4rd.apps.googleusercontent.com",
          "client_type": 3
        }
      ],
      "api_key": [
        {
          "current_key": "AIzaSyA5djkYQogDtP_HXSx6ZS8wB8BMZzH5z3Q"
        }
      ],
      "services": {
        "appinvite_service": {
          "other_platform_oauth_client": [
            {
              "client_id": "421535327263-c69n08rn83cgjg9lbbd93c0vmmbfl4rd.apps.googleusercontent.com",
              "client_type": 3
            }
          ]
        }
      }
    },
    {
      "client_info": {
        "mobilesdk_app_id": "1:421535327263:android:beb3e43371b4498d",
        "android_client_info": {
          "package_name": "com.matm.matmapp"
        }
      },
      "oauth_client": [
        {
          "client_id": "421535327263-c69n08rn83cgjg9lbbd93c0vmmbfl4rd.apps.googleusercontent.com",
          "client_type": 3
        }
      ],
      "api_key": [
        {
          "current_key": "AIzaSyA5djkYQogDtP_HXSx6ZS8wB8BMZzH5z3Q"
        }
      ],
      "services": {
        "appinvite_service": {
          "other_platform_oauth_client": [
            {
              "client_id": "421535327263-c69n08rn83cgjg9lbbd93c0vmmbfl4rd.apps.googleusercontent.com",
              "client_type": 3
            }
          ]
        }
      }
    },
    {
      "client_info": {
        "mobilesdk_app_id": "1:421535327263:android:0f6aab60095afee4",
        "android_client_info": {
          "package_name": "com.mnc.paymnc"
        }
      },
      "oauth_client": [
        {
          "client_id": "421535327263-c69n08rn83cgjg9lbbd93c0vmmbfl4rd.apps.googleusercontent.com",
          "client_type": 3
        }
      ],
      "api_key": [
        {
          "current_key": "AIzaSyA5djkYQogDtP_HXSx6ZS8wB8BMZzH5z3Q"
        }
      ],
      "services": {
        "appinvite_service": {
          "other_platform_oauth_client": [
            {
              "client_id": "421535327263-c69n08rn83cgjg9lbbd93c0vmmbfl4rd.apps.googleusercontent.com",
              "client_type": 3
            }
          ]
        }
      }
    },
    {
      "client_info": {
        "mobilesdk_app_id": "1:421535327263:android:547fc4de3719b7c5",
        "android_client_info": {
          "package_name": "com.movecash.movecashless"
        }
      },
      "oauth_client": [
        {
          "client_id": "421535327263-c69n08rn83cgjg9lbbd93c0vmmbfl4rd.apps.googleusercontent.com",
          "client_type": 3
        }
      ],
      "api_key": [
        {
          "current_key": "AIzaSyA5djkYQogDtP_HXSx6ZS8wB8BMZzH5z3Q"
        }
      ],
      "services": {
        "appinvite_service": {
          "other_platform_oauth_client": [
            {
              "client_id": "421535327263-c69n08rn83cgjg9lbbd93c0vmmbfl4rd.apps.googleusercontent.com",
              "client_type": 3
            }
          ]
        }
      }
    },
    {
      "client_info": {
        "mobilesdk_app_id": "1:421535327263:android:642c05cca64bc317",
        "android_client_info": {
          "package_name": "com.mydigital.mydigitalseva"
        }
      },
      "oauth_client": [
        {
          "client_id": "421535327263-c69n08rn83cgjg9lbbd93c0vmmbfl4rd.apps.googleusercontent.com",
          "client_type": 3
        }
      ],
      "api_key": [
        {
          "current_key": "AIzaSyA5djkYQogDtP_HXSx6ZS8wB8BMZzH5z3Q"
        }
      ],
      "services": {
        "appinvite_service": {
          "other_platform_oauth_client": [
            {
              "client_id": "421535327263-c69n08rn83cgjg9lbbd93c0vmmbfl4rd.apps.googleusercontent.com",
              "client_type": 3
            }
          ]
        }
      }
    },
    {
      "client_info": {
        "mobilesdk_app_id": "1:421535327263:android:1c8125d4cd95964b",
        "android_client_info": {
          "package_name": "com.namma.nammabharat"
        }
      },
      "oauth_client": [
        {
          "client_id": "421535327263-c69n08rn83cgjg9lbbd93c0vmmbfl4rd.apps.googleusercontent.com",
          "client_type": 3
        }
      ],
      "api_key": [
        {
          "current_key": "AIzaSyA5djkYQogDtP_HXSx6ZS8wB8BMZzH5z3Q"
        }
      ],
      "services": {
        "appinvite_service": {
          "other_platform_oauth_client": [
            {
              "client_id": "421535327263-c69n08rn83cgjg9lbbd93c0vmmbfl4rd.apps.googleusercontent.com",
              "client_type": 3
            }
          ]
        }
      }
    },
    {
      "client_info": {
        "mobilesdk_app_id": "1:421535327263:android:cc73a001b2484efd",
        "android_client_info": {
          "package_name": "com.nict.nictpay"
        }
      },
      "oauth_client": [
        {
          "client_id": "421535327263-c69n08rn83cgjg9lbbd93c0vmmbfl4rd.apps.googleusercontent.com",
          "client_type": 3
        }
      ],
      "api_key": [
        {
          "current_key": "AIzaSyA5djkYQogDtP_HXSx6ZS8wB8BMZzH5z3Q"
        }
      ],
      "services": {
        "appinvite_service": {
          "other_platform_oauth_client": [
            {
              "client_id": "421535327263-c69n08rn83cgjg9lbbd93c0vmmbfl4rd.apps.googleusercontent.com",
              "client_type": 3
            }
          ]
        }
      }
    },
    {
      "client_info": {
        "mobilesdk_app_id": "1:421535327263:android:16f936d8efee3150",
        "android_client_info": {
          "package_name": "com.omfin.omfinserve"
        }
      },
      "oauth_client": [
        {
          "client_id": "421535327263-c69n08rn83cgjg9lbbd93c0vmmbfl4rd.apps.googleusercontent.com",
          "client_type": 3
        }
      ],
      "api_key": [
        {
          "current_key": "AIzaSyA5djkYQogDtP_HXSx6ZS8wB8BMZzH5z3Q"
        }
      ],
      "services": {
        "appinvite_service": {
          "other_platform_oauth_client": [
            {
              "client_id": "421535327263-c69n08rn83cgjg9lbbd93c0vmmbfl4rd.apps.googleusercontent.com",
              "client_type": 3
            }
          ]
        }
      }
    },
    {
      "client_info": {
        "mobilesdk_app_id": "1:421535327263:android:197f44981a4b2457",
        "android_client_info": {
          "package_name": "com.oneindia.oneindiapayments"
        }
      },
      "oauth_client": [
        {
          "client_id": "421535327263-c69n08rn83cgjg9lbbd93c0vmmbfl4rd.apps.googleusercontent.com",
          "client_type": 3
        }
      ],
      "api_key": [
        {
          "current_key": "AIzaSyA5djkYQogDtP_HXSx6ZS8wB8BMZzH5z3Q"
        }
      ],
      "services": {
        "appinvite_service": {
          "other_platform_oauth_client": [
            {
              "client_id": "421535327263-c69n08rn83cgjg9lbbd93c0vmmbfl4rd.apps.googleusercontent.com",
              "client_type": 3
            }
          ]
        }
      }
    },
    {
      "client_info": {
        "mobilesdk_app_id": "1:421535327263:android:13b1c6166de5e66b",
        "android_client_info": {
          "package_name": "com.onpay.onpayon"
        }
      },
      "oauth_client": [
        {
          "client_id": "421535327263-c69n08rn83cgjg9lbbd93c0vmmbfl4rd.apps.googleusercontent.com",
          "client_type": 3
        }
      ],
      "api_key": [
        {
          "current_key": "AIzaSyA5djkYQogDtP_HXSx6ZS8wB8BMZzH5z3Q"
        }
      ],
      "services": {
        "appinvite_service": {
          "other_platform_oauth_client": [
            {
              "client_id": "421535327263-c69n08rn83cgjg9lbbd93c0vmmbfl4rd.apps.googleusercontent.com",
              "client_type": 3
            }
          ]
        }
      }
    },
    {
      "client_info": {
        "mobilesdk_app_id": "1:421535327263:android:c899d33d7d988d8e",
        "android_client_info": {
          "package_name": "com.pago.pagos"
        }
      },
      "oauth_client": [
        {
          "client_id": "421535327263-c69n08rn83cgjg9lbbd93c0vmmbfl4rd.apps.googleusercontent.com",
          "client_type": 3
        }
      ],
      "api_key": [
        {
          "current_key": "AIzaSyA5djkYQogDtP_HXSx6ZS8wB8BMZzH5z3Q"
        }
      ],
      "services": {
        "appinvite_service": {
          "other_platform_oauth_client": [
            {
              "client_id": "421535327263-c69n08rn83cgjg9lbbd93c0vmmbfl4rd.apps.googleusercontent.com",
              "client_type": 3
            }
          ]
        }
      }
    },
    {
      "client_info": {
        "mobilesdk_app_id": "1:421535327263:android:3596593de2b9b468",
        "android_client_info": {
          "package_name": "com.pay.payacross"
        }
      },
      "oauth_client": [
        {
          "client_id": "421535327263-c69n08rn83cgjg9lbbd93c0vmmbfl4rd.apps.googleusercontent.com",
          "client_type": 3
        }
      ],
      "api_key": [
        {
          "current_key": "AIzaSyA5djkYQogDtP_HXSx6ZS8wB8BMZzH5z3Q"
        }
      ],
      "services": {
        "appinvite_service": {
          "other_platform_oauth_client": [
            {
              "client_id": "421535327263-c69n08rn83cgjg9lbbd93c0vmmbfl4rd.apps.googleusercontent.com",
              "client_type": 3
            }
          ]
        }
      }
    },
    {
      "client_info": {
        "mobilesdk_app_id": "1:421535327263:android:60c60a625880980b",
        "android_client_info": {
          "package_name": "com.payesa.payesaapp"
        }
      },
      "oauth_client": [
        {
          "client_id": "421535327263-c69n08rn83cgjg9lbbd93c0vmmbfl4rd.apps.googleusercontent.com",
          "client_type": 3
        }
      ],
      "api_key": [
        {
          "current_key": "AIzaSyA5djkYQogDtP_HXSx6ZS8wB8BMZzH5z3Q"
        }
      ],
      "services": {
        "appinvite_service": {
          "other_platform_oauth_client": [
            {
              "client_id": "421535327263-c69n08rn83cgjg9lbbd93c0vmmbfl4rd.apps.googleusercontent.com",
              "client_type": 3
            }
          ]
        }
      }
    },
    {
      "client_info": {
        "mobilesdk_app_id": "1:421535327263:android:49715d48d49a31fb",
        "android_client_info": {
          "package_name": "com.payforum.payforum"
        }
      },
      "oauth_client": [
        {
          "client_id": "421535327263-c69n08rn83cgjg9lbbd93c0vmmbfl4rd.apps.googleusercontent.com",
          "client_type": 3
        }
      ],
      "api_key": [
        {
          "current_key": "AIzaSyA5djkYQogDtP_HXSx6ZS8wB8BMZzH5z3Q"
        }
      ],
      "services": {
        "appinvite_service": {
          "other_platform_oauth_client": [
            {
              "client_id": "421535327263-c69n08rn83cgjg9lbbd93c0vmmbfl4rd.apps.googleusercontent.com",
              "client_type": 3
            }
          ]
        }
      }
    },
    {
      "client_info": {
        "mobilesdk_app_id": "1:421535327263:android:f80e9cb8617b0de9",
        "android_client_info": {
          "package_name": "com.paypar.payparmoney"
        }
      },
      "oauth_client": [
        {
          "client_id": "421535327263-c69n08rn83cgjg9lbbd93c0vmmbfl4rd.apps.googleusercontent.com",
          "client_type": 3
        }
      ],
      "api_key": [
        {
          "current_key": "AIzaSyA5djkYQogDtP_HXSx6ZS8wB8BMZzH5z3Q"
        }
      ],
      "services": {
        "appinvite_service": {
          "other_platform_oauth_client": [
            {
              "client_id": "421535327263-c69n08rn83cgjg9lbbd93c0vmmbfl4rd.apps.googleusercontent.com",
              "client_type": 3
            }
          ]
        }
      }
    },
    {
      "client_info": {
        "mobilesdk_app_id": "1:421535327263:android:b1ebbea82ece7d3d",
        "android_client_info": {
          "package_name": "com.payswift.payswift"
        }
      },
      "oauth_client": [
        {
          "client_id": "421535327263-c69n08rn83cgjg9lbbd93c0vmmbfl4rd.apps.googleusercontent.com",
          "client_type": 3
        }
      ],
      "api_key": [
        {
          "current_key": "AIzaSyA5djkYQogDtP_HXSx6ZS8wB8BMZzH5z3Q"
        }
      ],
      "services": {
        "appinvite_service": {
          "other_platform_oauth_client": [
            {
              "client_id": "421535327263-c69n08rn83cgjg9lbbd93c0vmmbfl4rd.apps.googleusercontent.com",
              "client_type": 3
            }
          ]
        }
      }
    },
    {
      "client_info": {
        "mobilesdk_app_id": "1:421535327263:android:7fb2b5acc76e522f",
        "android_client_info": {
          "package_name": "com.pcp.pcppay"
        }
      },
      "oauth_client": [
        {
          "client_id": "421535327263-c69n08rn83cgjg9lbbd93c0vmmbfl4rd.apps.googleusercontent.com",
          "client_type": 3
        }
      ],
      "api_key": [
        {
          "current_key": "AIzaSyA5djkYQogDtP_HXSx6ZS8wB8BMZzH5z3Q"
        }
      ],
      "services": {
        "appinvite_service": {
          "other_platform_oauth_client": [
            {
              "client_id": "421535327263-c69n08rn83cgjg9lbbd93c0vmmbfl4rd.apps.googleusercontent.com",
              "client_type": 3
            }
          ]
        }
      }
    },
    {
      "client_info": {
        "mobilesdk_app_id": "1:421535327263:android:d31e73dcd8cd2b00",
        "android_client_info": {
          "package_name": "com.pfapay.pfapay"
        }
      },
      "oauth_client": [
        {
          "client_id": "421535327263-c69n08rn83cgjg9lbbd93c0vmmbfl4rd.apps.googleusercontent.com",
          "client_type": 3
        }
      ],
      "api_key": [
        {
          "current_key": "AIzaSyA5djkYQogDtP_HXSx6ZS8wB8BMZzH5z3Q"
        }
      ],
      "services": {
        "appinvite_service": {
          "other_platform_oauth_client": [
            {
              "client_id": "421535327263-c69n08rn83cgjg9lbbd93c0vmmbfl4rd.apps.googleusercontent.com",
              "client_type": 3
            }
          ]
        }
      }
    },
    {
      "client_info": {
        "mobilesdk_app_id": "1:421535327263:android:9291fdeb756e3179",
        "android_client_info": {
          "package_name": "com.phonex.phonex"
        }
      },
      "oauth_client": [
        {
          "client_id": "421535327263-c69n08rn83cgjg9lbbd93c0vmmbfl4rd.apps.googleusercontent.com",
          "client_type": 3
        }
      ],
      "api_key": [
        {
          "current_key": "AIzaSyA5djkYQogDtP_HXSx6ZS8wB8BMZzH5z3Q"
        }
      ],
      "services": {
        "appinvite_service": {
          "other_platform_oauth_client": [
            {
              "client_id": "421535327263-c69n08rn83cgjg9lbbd93c0vmmbfl4rd.apps.googleusercontent.com",
              "client_type": 3
            }
          ]
        }
      }
    },
    {
      "client_info": {
        "mobilesdk_app_id": "1:421535327263:android:5d6c350cc4853fcc",
        "android_client_info": {
          "package_name": "com.pmoney.perfectmoney"
        }
      },
      "oauth_client": [
        {
          "client_id": "421535327263-c69n08rn83cgjg9lbbd93c0vmmbfl4rd.apps.googleusercontent.com",
          "client_type": 3
        }
      ],
      "api_key": [
        {
          "current_key": "AIzaSyA5djkYQogDtP_HXSx6ZS8wB8BMZzH5z3Q"
        }
      ],
      "services": {
        "appinvite_service": {
          "other_platform_oauth_client": [
            {
              "client_id": "421535327263-c69n08rn83cgjg9lbbd93c0vmmbfl4rd.apps.googleusercontent.com",
              "client_type": 3
            }
          ]
        }
      }
    },
    {
      "client_info": {
        "mobilesdk_app_id": "1:421535327263:android:6c29d5f7bfd74bf8",
        "android_client_info": {
          "package_name": "com.pocket.pocketpay"
        }
      },
      "oauth_client": [
        {
          "client_id": "421535327263-c69n08rn83cgjg9lbbd93c0vmmbfl4rd.apps.googleusercontent.com",
          "client_type": 3
        }
      ],
      "api_key": [
        {
          "current_key": "AIzaSyA5djkYQogDtP_HXSx6ZS8wB8BMZzH5z3Q"
        }
      ],
      "services": {
        "appinvite_service": {
          "other_platform_oauth_client": [
            {
              "client_id": "421535327263-c69n08rn83cgjg9lbbd93c0vmmbfl4rd.apps.googleusercontent.com",
              "client_type": 3
            }
          ]
        }
      }
    },
    {
      "client_info": {
        "mobilesdk_app_id": "1:421535327263:android:e1865b079536e6d4",
        "android_client_info": {
          "package_name": "com.quickpay.quickpayindia"
        }
      },
      "oauth_client": [
        {
          "client_id": "421535327263-c69n08rn83cgjg9lbbd93c0vmmbfl4rd.apps.googleusercontent.com",
          "client_type": 3
        }
      ],
      "api_key": [
        {
          "current_key": "AIzaSyA5djkYQogDtP_HXSx6ZS8wB8BMZzH5z3Q"
        }
      ],
      "services": {
        "appinvite_service": {
          "other_platform_oauth_client": [
            {
              "client_id": "421535327263-c69n08rn83cgjg9lbbd93c0vmmbfl4rd.apps.googleusercontent.com",
              "client_type": 3
            }
          ]
        }
      }
    },
    {
      "client_info": {
        "mobilesdk_app_id": "1:421535327263:android:4ed405ae261c8046",
        "android_client_info": {
          "package_name": "com.qwqeqwe.fvfddf"
        }
      },
      "oauth_client": [
        {
          "client_id": "421535327263-c69n08rn83cgjg9lbbd93c0vmmbfl4rd.apps.googleusercontent.com",
          "client_type": 3
        }
      ],
      "api_key": [
        {
          "current_key": "AIzaSyA5djkYQogDtP_HXSx6ZS8wB8BMZzH5z3Q"
        }
      ],
      "services": {
        "appinvite_service": {
          "other_platform_oauth_client": [
            {
              "client_id": "421535327263-c69n08rn83cgjg9lbbd93c0vmmbfl4rd.apps.googleusercontent.com",
              "client_type": 3
            }
          ]
        }
      }
    },
    {
      "client_info": {
        "mobilesdk_app_id": "1:421535327263:android:54af4ba7f46543a0",
        "android_client_info": {
          "package_name": "com.rcec.rekha"
        }
      },
      "oauth_client": [
        {
          "client_id": "421535327263-c69n08rn83cgjg9lbbd93c0vmmbfl4rd.apps.googleusercontent.com",
          "client_type": 3
        }
      ],
      "api_key": [
        {
          "current_key": "AIzaSyA5djkYQogDtP_HXSx6ZS8wB8BMZzH5z3Q"
        }
      ],
      "services": {
        "appinvite_service": {
          "other_platform_oauth_client": [
            {
              "client_id": "421535327263-c69n08rn83cgjg9lbbd93c0vmmbfl4rd.apps.googleusercontent.com",
              "client_type": 3
            }
          ]
        }
      }
    },
    {
      "client_info": {
        "mobilesdk_app_id": "1:421535327263:android:0091dffc05ecd8bf",
        "android_client_info": {
          "package_name": "com.rozpay.rozpay"
        }
      },
      "oauth_client": [
        {
          "client_id": "421535327263-c69n08rn83cgjg9lbbd93c0vmmbfl4rd.apps.googleusercontent.com",
          "client_type": 3
        }
      ],
      "api_key": [
        {
          "current_key": "AIzaSyA5djkYQogDtP_HXSx6ZS8wB8BMZzH5z3Q"
        }
      ],
      "services": {
        "appinvite_service": {
          "other_platform_oauth_client": [
            {
              "client_id": "421535327263-c69n08rn83cgjg9lbbd93c0vmmbfl4rd.apps.googleusercontent.com",
              "client_type": 3
            }
          ]
        }
      }
    },
    {
      "client_info": {
        "mobilesdk_app_id": "1:421535327263:android:f3e31133bf0b9efa",
        "android_client_info": {
          "package_name": "com.rupay.rupayworld"
        }
      },
      "oauth_client": [
        {
          "client_id": "421535327263-c69n08rn83cgjg9lbbd93c0vmmbfl4rd.apps.googleusercontent.com",
          "client_type": 3
        }
      ],
      "api_key": [
        {
          "current_key": "AIzaSyA5djkYQogDtP_HXSx6ZS8wB8BMZzH5z3Q"
        }
      ],
      "services": {
        "appinvite_service": {
          "other_platform_oauth_client": [
            {
              "client_id": "421535327263-c69n08rn83cgjg9lbbd93c0vmmbfl4rd.apps.googleusercontent.com",
              "client_type": 3
            }
          ]
        }
      }
    },
    {
      "client_info": {
        "mobilesdk_app_id": "1:421535327263:android:0e2b0819a6480799",
        "android_client_info": {
          "package_name": "com.sakal.sakalone"
        }
      },
      "oauth_client": [
        {
          "client_id": "421535327263-c69n08rn83cgjg9lbbd93c0vmmbfl4rd.apps.googleusercontent.com",
          "client_type": 3
        }
      ],
      "api_key": [
        {
          "current_key": "AIzaSyA5djkYQogDtP_HXSx6ZS8wB8BMZzH5z3Q"
        }
      ],
      "services": {
        "appinvite_service": {
          "other_platform_oauth_client": [
            {
              "client_id": "421535327263-c69n08rn83cgjg9lbbd93c0vmmbfl4rd.apps.googleusercontent.com",
              "client_type": 3
            }
          ]
        }
      }
    },
    {
      "client_info": {
        "mobilesdk_app_id": "1:421535327263:android:4d3fc563e9f8d0e9",
        "android_client_info": {
          "package_name": "com.sanpay.sanpayapp"
        }
      },
      "oauth_client": [
        {
          "client_id": "421535327263-c69n08rn83cgjg9lbbd93c0vmmbfl4rd.apps.googleusercontent.com",
          "client_type": 3
        }
      ],
      "api_key": [
        {
          "current_key": "AIzaSyA5djkYQogDtP_HXSx6ZS8wB8BMZzH5z3Q"
        }
      ],
      "services": {
        "appinvite_service": {
          "other_platform_oauth_client": [
            {
              "client_id": "421535327263-c69n08rn83cgjg9lbbd93c0vmmbfl4rd.apps.googleusercontent.com",
              "client_type": 3
            }
          ]
        }
      }
    },
    {
      "client_info": {
        "mobilesdk_app_id": "1:421535327263:android:31f67f5c269c20ea",
        "android_client_info": {
          "package_name": "com.saral.saralpay"
        }
      },
      "oauth_client": [
        {
          "client_id": "421535327263-c69n08rn83cgjg9lbbd93c0vmmbfl4rd.apps.googleusercontent.com",
          "client_type": 3
        }
      ],
      "api_key": [
        {
          "current_key": "AIzaSyA5djkYQogDtP_HXSx6ZS8wB8BMZzH5z3Q"
        }
      ],
      "services": {
        "appinvite_service": {
          "other_platform_oauth_client": [
            {
              "client_id": "421535327263-c69n08rn83cgjg9lbbd93c0vmmbfl4rd.apps.googleusercontent.com",
              "client_type": 3
            }
          ]
        }
      }
    },
    {
      "client_info": {
        "mobilesdk_app_id": "1:421535327263:android:cce119550da07b48",
        "android_client_info": {
          "package_name": "com.savpay.savpay"
        }
      },
      "oauth_client": [
        {
          "client_id": "421535327263-c69n08rn83cgjg9lbbd93c0vmmbfl4rd.apps.googleusercontent.com",
          "client_type": 3
        }
      ],
      "api_key": [
        {
          "current_key": "AIzaSyA5djkYQogDtP_HXSx6ZS8wB8BMZzH5z3Q"
        }
      ],
      "services": {
        "appinvite_service": {
          "other_platform_oauth_client": [
            {
              "client_id": "421535327263-c69n08rn83cgjg9lbbd93c0vmmbfl4rd.apps.googleusercontent.com",
              "client_type": 3
            }
          ]
        }
      }
    },
    {
      "client_info": {
        "mobilesdk_app_id": "1:421535327263:android:56fe41b9d250bd81",
        "android_client_info": {
          "package_name": "com.sea.seaorgan"
        }
      },
      "oauth_client": [
        {
          "client_id": "421535327263-c69n08rn83cgjg9lbbd93c0vmmbfl4rd.apps.googleusercontent.com",
          "client_type": 3
        }
      ],
      "api_key": [
        {
          "current_key": "AIzaSyA5djkYQogDtP_HXSx6ZS8wB8BMZzH5z3Q"
        }
      ],
      "services": {
        "appinvite_service": {
          "other_platform_oauth_client": [
            {
              "client_id": "421535327263-c69n08rn83cgjg9lbbd93c0vmmbfl4rd.apps.googleusercontent.com",
              "client_type": 3
            }
          ]
        }
      }
    },
    {
      "client_info": {
        "mobilesdk_app_id": "1:421535327263:android:50d5c3699afd608c",
        "android_client_info": {
          "package_name": "com.shubh.shubhmoney"
        }
      },
      "oauth_client": [
        {
          "client_id": "421535327263-c69n08rn83cgjg9lbbd93c0vmmbfl4rd.apps.googleusercontent.com",
          "client_type": 3
        }
      ],
      "api_key": [
        {
          "current_key": "AIzaSyA5djkYQogDtP_HXSx6ZS8wB8BMZzH5z3Q"
        }
      ],
      "services": {
        "appinvite_service": {
          "other_platform_oauth_client": [
            {
              "client_id": "421535327263-c69n08rn83cgjg9lbbd93c0vmmbfl4rd.apps.googleusercontent.com",
              "client_type": 3
            }
          ]
        }
      }
    },
    {
      "client_info": {
        "mobilesdk_app_id": "1:421535327263:android:d984985356bf5e71",
        "android_client_info": {
          "package_name": "com.smartpayservice.smartpayserviceaeps"
        }
      },
      "oauth_client": [
        {
          "client_id": "421535327263-c69n08rn83cgjg9lbbd93c0vmmbfl4rd.apps.googleusercontent.com",
          "client_type": 3
        }
      ],
      "api_key": [
        {
          "current_key": "AIzaSyA5djkYQogDtP_HXSx6ZS8wB8BMZzH5z3Q"
        }
      ],
      "services": {
        "appinvite_service": {
          "other_platform_oauth_client": [
            {
              "client_id": "421535327263-c69n08rn83cgjg9lbbd93c0vmmbfl4rd.apps.googleusercontent.com",
              "client_type": 3
            }
          ]
        }
      }
    },
    {
      "client_info": {
        "mobilesdk_app_id": "1:421535327263:android:b1a4755d597c7beb",
        "android_client_info": {
          "package_name": "com.softpe.softpeapp"
        }
      },
      "oauth_client": [
        {
          "client_id": "421535327263-c69n08rn83cgjg9lbbd93c0vmmbfl4rd.apps.googleusercontent.com",
          "client_type": 3
        }
      ],
      "api_key": [
        {
          "current_key": "AIzaSyA5djkYQogDtP_HXSx6ZS8wB8BMZzH5z3Q"
        }
      ],
      "services": {
        "appinvite_service": {
          "other_platform_oauth_client": [
            {
              "client_id": "421535327263-c69n08rn83cgjg9lbbd93c0vmmbfl4rd.apps.googleusercontent.com",
              "client_type": 3
            }
          ]
        }
      }
    },
    {
      "client_info": {
        "mobilesdk_app_id": "1:421535327263:android:ae5550f3358d4092",
        "android_client_info": {
          "package_name": "com.somriddhi.somriddhiaeps"
        }
      },
      "oauth_client": [
        {
          "client_id": "421535327263-c69n08rn83cgjg9lbbd93c0vmmbfl4rd.apps.googleusercontent.com",
          "client_type": 3
        }
      ],
      "api_key": [
        {
          "current_key": "AIzaSyA5djkYQogDtP_HXSx6ZS8wB8BMZzH5z3Q"
        }
      ],
      "services": {
        "appinvite_service": {
          "other_platform_oauth_client": [
            {
              "client_id": "421535327263-c69n08rn83cgjg9lbbd93c0vmmbfl4rd.apps.googleusercontent.com",
              "client_type": 3
            }
          ]
        }
      }
    },
    {
      "client_info": {
        "mobilesdk_app_id": "1:421535327263:android:bef0158dce43375e",
        "android_client_info": {
          "package_name": "com.sspl.ssplmoney"
        }
      },
      "oauth_client": [
        {
          "client_id": "421535327263-c69n08rn83cgjg9lbbd93c0vmmbfl4rd.apps.googleusercontent.com",
          "client_type": 3
        }
      ],
      "api_key": [
        {
          "current_key": "AIzaSyA5djkYQogDtP_HXSx6ZS8wB8BMZzH5z3Q"
        }
      ],
      "services": {
        "appinvite_service": {
          "other_platform_oauth_client": [
            {
              "client_id": "421535327263-c69n08rn83cgjg9lbbd93c0vmmbfl4rd.apps.googleusercontent.com",
              "client_type": 3
            }
          ]
        }
      }
    },
    {
      "client_info": {
        "mobilesdk_app_id": "1:421535327263:android:c4682ba9b181365f",
        "android_client_info": {
          "package_name": "com.ssr.ssrrechargemoney"
        }
      },
      "oauth_client": [
        {
          "client_id": "421535327263-c69n08rn83cgjg9lbbd93c0vmmbfl4rd.apps.googleusercontent.com",
          "client_type": 3
        }
      ],
      "api_key": [
        {
          "current_key": "AIzaSyA5djkYQogDtP_HXSx6ZS8wB8BMZzH5z3Q"
        }
      ],
      "services": {
        "appinvite_service": {
          "other_platform_oauth_client": [
            {
              "client_id": "421535327263-c69n08rn83cgjg9lbbd93c0vmmbfl4rd.apps.googleusercontent.com",
              "client_type": 3
            }
          ]
        }
      }
    },
    {
      "client_info": {
        "mobilesdk_app_id": "1:421535327263:android:343c9fd985ccb011",
        "android_client_info": {
          "package_name": "com.stardigital.stardigitalmoney"
        }
      },
      "oauth_client": [
        {
          "client_id": "421535327263-c69n08rn83cgjg9lbbd93c0vmmbfl4rd.apps.googleusercontent.com",
          "client_type": 3
        }
      ],
      "api_key": [
        {
          "current_key": "AIzaSyA5djkYQogDtP_HXSx6ZS8wB8BMZzH5z3Q"
        }
      ],
      "services": {
        "appinvite_service": {
          "other_platform_oauth_client": [
            {
              "client_id": "421535327263-c69n08rn83cgjg9lbbd93c0vmmbfl4rd.apps.googleusercontent.com",
              "client_type": 3
            }
          ]
        }
      }
    },
    {
      "client_info": {
        "mobilesdk_app_id": "1:421535327263:android:74d3f4e891ed7221",
        "android_client_info": {
          "package_name": "com.suvidhamart.suvidha"
        }
      },
      "oauth_client": [
        {
          "client_id": "421535327263-c69n08rn83cgjg9lbbd93c0vmmbfl4rd.apps.googleusercontent.com",
          "client_type": 3
        }
      ],
      "api_key": [
        {
          "current_key": "AIzaSyA5djkYQogDtP_HXSx6ZS8wB8BMZzH5z3Q"
        }
      ],
      "services": {
        "appinvite_service": {
          "other_platform_oauth_client": [
            {
              "client_id": "421535327263-c69n08rn83cgjg9lbbd93c0vmmbfl4rd.apps.googleusercontent.com",
              "client_type": 3
            }
          ]
        }
      }
    },
    {
      "client_info": {
        "mobilesdk_app_id": "1:421535327263:android:c7805d869770e434",
        "android_client_info": {
          "package_name": "com.swarajya.swarajyainfo"
        }
      },
      "oauth_client": [
        {
          "client_id": "421535327263-c69n08rn83cgjg9lbbd93c0vmmbfl4rd.apps.googleusercontent.com",
          "client_type": 3
        }
      ],
      "api_key": [
        {
          "current_key": "AIzaSyA5djkYQogDtP_HXSx6ZS8wB8BMZzH5z3Q"
        }
      ],
      "services": {
        "appinvite_service": {
          "other_platform_oauth_client": [
            {
              "client_id": "421535327263-c69n08rn83cgjg9lbbd93c0vmmbfl4rd.apps.googleusercontent.com",
              "client_type": 3
            }
          ]
        }
      }
    },
    {
      "client_info": {
        "mobilesdk_app_id": "1:421535327263:android:bf2285779347e142",
        "android_client_info": {
          "package_name": "com.test.xyz"
        }
      },
      "oauth_client": [
        {
          "client_id": "421535327263-c69n08rn83cgjg9lbbd93c0vmmbfl4rd.apps.googleusercontent.com",
          "client_type": 3
        }
      ],
      "api_key": [
        {
          "current_key": "AIzaSyA5djkYQogDtP_HXSx6ZS8wB8BMZzH5z3Q"
        }
      ],
      "services": {
        "appinvite_service": {
          "other_platform_oauth_client": [
            {
              "client_id": "421535327263-c69n08rn83cgjg9lbbd93c0vmmbfl4rd.apps.googleusercontent.com",
              "client_type": 3
            }
          ]
        }
      }
    },
    {
      "client_info": {
        "mobilesdk_app_id": "1:421535327263:android:c0e58b8e9ed786b2",
        "android_client_info": {
          "package_name": "com.travelx.travelxindia"
        }
      },
      "oauth_client": [
        {
          "client_id": "421535327263-c69n08rn83cgjg9lbbd93c0vmmbfl4rd.apps.googleusercontent.com",
          "client_type": 3
        }
      ],
      "api_key": [
        {
          "current_key": "AIzaSyA5djkYQogDtP_HXSx6ZS8wB8BMZzH5z3Q"
        }
      ],
      "services": {
        "appinvite_service": {
          "other_platform_oauth_client": [
            {
              "client_id": "421535327263-c69n08rn83cgjg9lbbd93c0vmmbfl4rd.apps.googleusercontent.com",
              "client_type": 3
            }
          ]
        }
      }
    },
    {
      "client_info": {
        "mobilesdk_app_id": "1:421535327263:android:e7343d8ce58d044a",
        "android_client_info": {
          "package_name": "com.unique.uniquepay"
        }
      },
      "oauth_client": [
        {
          "client_id": "421535327263-c69n08rn83cgjg9lbbd93c0vmmbfl4rd.apps.googleusercontent.com",
          "client_type": 3
        }
      ],
      "api_key": [
        {
          "current_key": "AIzaSyA5djkYQogDtP_HXSx6ZS8wB8BMZzH5z3Q"
        }
      ],
      "services": {
        "appinvite_service": {
          "other_platform_oauth_client": [
            {
              "client_id": "421535327263-c69n08rn83cgjg9lbbd93c0vmmbfl4rd.apps.googleusercontent.com",
              "client_type": 3
            }
          ]
        }
      }
    },
    {
      "client_info": {
        "mobilesdk_app_id": "1:421535327263:android:0fbdcfdb9816339b",
        "android_client_info": {
          "package_name": "com.unnatbharat.unnatbharat"
        }
      },
      "oauth_client": [
        {
          "client_id": "421535327263-c69n08rn83cgjg9lbbd93c0vmmbfl4rd.apps.googleusercontent.com",
          "client_type": 3
        }
      ],
      "api_key": [
        {
          "current_key": "AIzaSyA5djkYQogDtP_HXSx6ZS8wB8BMZzH5z3Q"
        }
      ],
      "services": {
        "appinvite_service": {
          "other_platform_oauth_client": [
            {
              "client_id": "421535327263-c69n08rn83cgjg9lbbd93c0vmmbfl4rd.apps.googleusercontent.com",
              "client_type": 3
            }
          ]
        }
      }
    },
    {
      "client_info": {
        "mobilesdk_app_id": "1:421535327263:android:626283ea5c793373",
        "android_client_info": {
          "package_name": "com.unnayon.unnayon"
        }
      },
      "oauth_client": [
        {
          "client_id": "421535327263-c69n08rn83cgjg9lbbd93c0vmmbfl4rd.apps.googleusercontent.com",
          "client_type": 3
        }
      ],
      "api_key": [
        {
          "current_key": "AIzaSyA5djkYQogDtP_HXSx6ZS8wB8BMZzH5z3Q"
        }
      ],
      "services": {
        "appinvite_service": {
          "other_platform_oauth_client": [
            {
              "client_id": "421535327263-c69n08rn83cgjg9lbbd93c0vmmbfl4rd.apps.googleusercontent.com",
              "client_type": 3
            }
          ]
        }
      }
    },
    {
      "client_info": {
        "mobilesdk_app_id": "1:421535327263:android:c5d8b10c718b5711",
        "android_client_info": {
          "package_name": "com.user.authentication"
        }
      },
      "oauth_client": [
        {
          "client_id": "421535327263-c69n08rn83cgjg9lbbd93c0vmmbfl4rd.apps.googleusercontent.com",
          "client_type": 3
        }
      ],
      "api_key": [
        {
          "current_key": "AIzaSyA5djkYQogDtP_HXSx6ZS8wB8BMZzH5z3Q"
        }
      ],
      "services": {
        "appinvite_service": {
          "other_platform_oauth_client": [
            {
              "client_id": "421535327263-c69n08rn83cgjg9lbbd93c0vmmbfl4rd.apps.googleusercontent.com",
              "client_type": 3
            }
          ]
        }
      }
    },
    {
      "client_info": {
        "mobilesdk_app_id": "1:421535327263:android:7c44753f6ffd853e",
        "android_client_info": {
          "package_name": "com.vinayak.vinyakinfotech"
        }
      },
      "oauth_client": [
        {
          "client_id": "421535327263-c69n08rn83cgjg9lbbd93c0vmmbfl4rd.apps.googleusercontent.com",
          "client_type": 3
        }
      ],
      "api_key": [
        {
          "current_key": "AIzaSyA5djkYQogDtP_HXSx6ZS8wB8BMZzH5z3Q"
        }
      ],
      "services": {
        "appinvite_service": {
          "other_platform_oauth_client": [
            {
              "client_id": "421535327263-c69n08rn83cgjg9lbbd93c0vmmbfl4rd.apps.googleusercontent.com",
              "client_type": 3
            }
          ]
        }
      }
    },
    {
      "client_info": {
        "mobilesdk_app_id": "1:421535327263:android:a5cf161928a68168",
        "android_client_info": {
          "package_name": "com.wishingdelle.wishingdellepay"
        }
      },
      "oauth_client": [
        {
          "client_id": "421535327263-c69n08rn83cgjg9lbbd93c0vmmbfl4rd.apps.googleusercontent.com",
          "client_type": 3
        }
      ],
      "api_key": [
        {
          "current_key": "AIzaSyA5djkYQogDtP_HXSx6ZS8wB8BMZzH5z3Q"
        }
      ],
      "services": {
        "appinvite_service": {
          "other_platform_oauth_client": [
            {
              "client_id": "421535327263-c69n08rn83cgjg9lbbd93c0vmmbfl4rd.apps.googleusercontent.com",
              "client_type": 3
            }
          ]
        }
      }
    },
    {
      "client_info": {
        "mobilesdk_app_id": "1:421535327263:android:f7a9069db63ff1f3",
        "android_client_info": {
          "package_name": "com.xyz.demo"
        }
      },
      "oauth_client": [
        {
          "client_id": "421535327263-c69n08rn83cgjg9lbbd93c0vmmbfl4rd.apps.googleusercontent.com",
          "client_type": 3
        }
      ],
      "api_key": [
        {
          "current_key": "AIzaSyA5djkYQogDtP_HXSx6ZS8wB8BMZzH5z3Q"
        }
      ],
      "services": {
        "appinvite_service": {
          "other_platform_oauth_client": [
            {
              "client_id": "421535327263-c69n08rn83cgjg9lbbd93c0vmmbfl4rd.apps.googleusercontent.com",
              "client_type": 3
            }
          ]
        }
      }
    }
  ],
  "configuration_version": "1"
}