{
  "project_info": {
    "project_number": "241663038141",
    "firebase_url": "https://isuaepsdev.firebaseio.com",
    "project_id": "isuaepsdev",
    "storage_bucket": "isuaepsdev.appspot.com"
  },
  "client": [
    {
      "client_info": {
        "mobilesdk_app_id": "1:241663038141:android:f007f4ae59301a37",
        "android_client_info": {
          "package_name": "com.iserveu.aeps"
        }
      },
      "oauth_client": [
        {
          "client_id": "241663038141-nmi0406gc6vtmfupm4mbbcls28k5p5jr.apps.googleusercontent.com",
          "client_type": 3
        }
      ],
      "api_key": [
        {
          "current_key": "AIzaSyAURZ4sUCb_Hqk45ZBFRwVqC_sSjdDGtJo"
        }
      ],
      "services": {
        "analytics_service": {
          "status": 1
        },
        "appinvite_service": {
          "status": 1,
          "other_platform_oauth_client": []
        },
        "ads_service": {
          "status": 2
        }
      }
    },
    {
      "client_info": {
        "mobilesdk_app_id": "1:241663038141:android:543dfa043dc2a310",
        "android_client_info": {
          "package_name": "com.iserveu.aepsStagging"
        }
      },
      "oauth_client": [
        {
          "client_id": "241663038141-nmi0406gc6vtmfupm4mbbcls28k5p5jr.apps.googleusercontent.com",
          "client_type": 3
        }
      ],
      "api_key": [
        {
          "current_key": "AIzaSyAURZ4sUCb_Hqk45ZBFRwVqC_sSjdDGtJo"
        }
      ],
      "services": {
        "analytics_service": {
          "status": 1
        },
        "appinvite_service": {
          "status": 1,
          "other_platform_oauth_client": []
        },
        "ads_service": {
          "status": 2
        }
      }
    },
    {
      "client_info": {
        "mobilesdk_app_id": "1:241663038141:android:7c7e213585ced9f5",
        "android_client_info": {
          "package_name": "com.iserveu.bisani"
        }
      },
      "oauth_client": [
        {
          "client_id": "241663038141-nmi0406gc6vtmfupm4mbbcls28k5p5jr.apps.googleusercontent.com",
          "client_type": 3
        }
      ],
      "api_key": [
        {
          "current_key": "AIzaSyAURZ4sUCb_Hqk45ZBFRwVqC_sSjdDGtJo"
        }
      ],
      "services": {
        "analytics_service": {
          "status": 1
        },
        "appinvite_service": {
          "status": 1,
          "other_platform_oauth_client": []
        },
        "ads_service": {
          "status": 2
        }
      }
    },
    {
      "client_info": {
        "mobilesdk_app_id": "1:241663038141:android:117eb4767c692359",
        "android_client_info": {
          "package_name": "com.iserveu.cyrusw68"
        }
      },
      "oauth_client": [
        {
          "client_id": "241663038141-nmi0406gc6vtmfupm4mbbcls28k5p5jr.apps.googleusercontent.com",
          "client_type": 3
        }
      ],
      "api_key": [
        {
          "current_key": "AIzaSyAURZ4sUCb_Hqk45ZBFRwVqC_sSjdDGtJo"
        }
      ],
      "services": {
        "analytics_service": {
          "status": 1
        },
        "appinvite_service": {
          "status": 1,
          "other_platform_oauth_client": []
        },
        "ads_service": {
          "status": 2
        }
      }
    },
    {
      "client_info": {
        "mobilesdk_app_id": "1:241663038141:android:92285517dbe8da4b",
        "android_client_info": {
          "package_name": "com.iserveu.dpay"
        }
      },
      "oauth_client": [
        {
          "client_id": "241663038141-nmi0406gc6vtmfupm4mbbcls28k5p5jr.apps.googleusercontent.com",
          "client_type": 3
        }
      ],
      "api_key": [
        {
          "current_key": "AIzaSyAURZ4sUCb_Hqk45ZBFRwVqC_sSjdDGtJo"
        }
      ],
      "services": {
        "analytics_service": {
          "status": 1
        },
        "appinvite_service": {
          "status": 1,
          "other_platform_oauth_client": []
        },
        "ads_service": {
          "status": 2
        }
      }
    },
    {
      "client_info": {
        "mobilesdk_app_id": "1:241663038141:android:019147cdb38b5046",
        "android_client_info": {
          "package_name": "com.iserveu.dseva"
        }
      },
      "oauth_client": [
        {
          "client_id": "241663038141-nmi0406gc6vtmfupm4mbbcls28k5p5jr.apps.googleusercontent.com",
          "client_type": 3
        }
      ],
      "api_key": [
        {
          "current_key": "AIzaSyAURZ4sUCb_Hqk45ZBFRwVqC_sSjdDGtJo"
        }
      ],
      "services": {
        "analytics_service": {
          "status": 1
        },
        "appinvite_service": {
          "status": 1,
          "other_platform_oauth_client": []
        },
        "ads_service": {
          "status": 2
        }
      }
    },
    {
      "client_info": {
        "mobilesdk_app_id": "1:241663038141:android:d1d2ddd0a07c1e32",
        "android_client_info": {
          "package_name": "com.iserveu.fipay"
        }
      },
      "oauth_client": [
        {
          "client_id": "241663038141-nmi0406gc6vtmfupm4mbbcls28k5p5jr.apps.googleusercontent.com",
          "client_type": 3
        }
      ],
      "api_key": [
        {
          "current_key": "AIzaSyAURZ4sUCb_Hqk45ZBFRwVqC_sSjdDGtJo"
        }
      ],
      "services": {
        "analytics_service": {
          "status": 1
        },
        "appinvite_service": {
          "status": 1,
          "other_platform_oauth_client": []
        },
        "ads_service": {
          "status": 2
        }
      }
    },
    {
      "client_info": {
        "mobilesdk_app_id": "1:241663038141:android:d9bcf5479a1500b9",
        "android_client_info": {
          "package_name": "com.iserveu.isewa"
        }
      },
      "oauth_client": [
        {
          "client_id": "241663038141-nmi0406gc6vtmfupm4mbbcls28k5p5jr.apps.googleusercontent.com",
          "client_type": 3
        }
      ],
      "api_key": [
        {
          "current_key": "AIzaSyAURZ4sUCb_Hqk45ZBFRwVqC_sSjdDGtJo"
        }
      ],
      "services": {
        "analytics_service": {
          "status": 1
        },
        "appinvite_service": {
          "status": 1,
          "other_platform_oauth_client": []
        },
        "ads_service": {
          "status": 2
        }
      }
    },
    {
      "client_info": {
        "mobilesdk_app_id": "1:241663038141:android:8424dc9e71e913f5",
        "android_client_info": {
          "package_name": "com.iserveu.krac"
        }
      },
      "oauth_client": [
        {
          "client_id": "241663038141-nmi0406gc6vtmfupm4mbbcls28k5p5jr.apps.googleusercontent.com",
          "client_type": 3
        }
      ],
      "api_key": [
        {
          "current_key": "AIzaSyAURZ4sUCb_Hqk45ZBFRwVqC_sSjdDGtJo"
        }
      ],
      "services": {
        "analytics_service": {
          "status": 1
        },
        "appinvite_service": {
          "status": 1,
          "other_platform_oauth_client": []
        },
        "ads_service": {
          "status": 2
        }
      }
    },
    {
      "client_info": {
        "mobilesdk_app_id": "1:241663038141:android:aaf8cd7817ac3360",
        "android_client_info": {
          "package_name": "com.iserveu.mdigipay"
        }
      },
      "oauth_client": [
        {
          "client_id": "241663038141-nmi0406gc6vtmfupm4mbbcls28k5p5jr.apps.googleusercontent.com",
          "client_type": 3
        }
      ],
      "api_key": [
        {
          "current_key": "AIzaSyAURZ4sUCb_Hqk45ZBFRwVqC_sSjdDGtJo"
        }
      ],
      "services": {
        "analytics_service": {
          "status": 1
        },
        "appinvite_service": {
          "status": 1,
          "other_platform_oauth_client": []
        },
        "ads_service": {
          "status": 2
        }
      }
    },
    {
      "client_info": {
        "mobilesdk_app_id": "1:241663038141:android:1d11591c6db063be",
        "android_client_info": {
          "package_name": "com.iserveu.money"
        }
      },
      "oauth_client": [
        {
          "client_id": "241663038141-nmi0406gc6vtmfupm4mbbcls28k5p5jr.apps.googleusercontent.com",
          "client_type": 3
        }
      ],
      "api_key": [
        {
          "current_key": "AIzaSyAURZ4sUCb_Hqk45ZBFRwVqC_sSjdDGtJo"
        }
      ],
      "services": {
        "analytics_service": {
          "status": 1
        },
        "appinvite_service": {
          "status": 1,
          "other_platform_oauth_client": []
        },
        "ads_service": {
          "status": 2
        }
      }
    },
    {
      "client_info": {
        "mobilesdk_app_id": "1:241663038141:android:ba7f33514324a21a",
        "android_client_info": {
          "package_name": "com.iserveu.movecashless"
        }
      },
      "oauth_client": [
        {
          "client_id": "241663038141-nmi0406gc6vtmfupm4mbbcls28k5p5jr.apps.googleusercontent.com",
          "client_type": 3
        }
      ],
      "api_key": [
        {
          "current_key": "AIzaSyAURZ4sUCb_Hqk45ZBFRwVqC_sSjdDGtJo"
        }
      ],
      "services": {
        "analytics_service": {
          "status": 1
        },
        "appinvite_service": {
          "status": 1,
          "other_platform_oauth_client": []
        },
        "ads_service": {
          "status": 2
        }
      }
    },
    {
      "client_info": {
        "mobilesdk_app_id": "1:241663038141:android:0e60ceb992225ce5",
        "android_client_info": {
          "package_name": "com.iserveu.nmarata"
        }
      },
      "oauth_client": [
        {
          "client_id": "241663038141-nmi0406gc6vtmfupm4mbbcls28k5p5jr.apps.googleusercontent.com",
          "client_type": 3
        }
      ],
      "api_key": [
        {
          "current_key": "AIzaSyAURZ4sUCb_Hqk45ZBFRwVqC_sSjdDGtJo"
        }
      ],
      "services": {
        "analytics_service": {
          "status": 1
        },
        "appinvite_service": {
          "status": 1,
          "other_platform_oauth_client": []
        },
        "ads_service": {
          "status": 2
        }
      }
    },
    {
      "client_info": {
        "mobilesdk_app_id": "1:241663038141:android:e8a2ca1990f3bcc3",
        "android_client_info": {
          "package_name": "com.iserveu.payatm"
        }
      },
      "oauth_client": [
        {
          "client_id": "241663038141-nmi0406gc6vtmfupm4mbbcls28k5p5jr.apps.googleusercontent.com",
          "client_type": 3
        }
      ],
      "api_key": [
        {
          "current_key": "AIzaSyAURZ4sUCb_Hqk45ZBFRwVqC_sSjdDGtJo"
        }
      ],
      "services": {
        "analytics_service": {
          "status": 1
        },
        "appinvite_service": {
          "status": 1,
          "other_platform_oauth_client": []
        },
        "ads_service": {
          "status": 2
        }
      }
    },
    {
      "client_info": {
        "mobilesdk_app_id": "1:241663038141:android:b4a2b7df824fe0c2",
        "android_client_info": {
          "package_name": "com.iserveu.pmoney"
        }
      },
      "oauth_client": [
        {
          "client_id": "241663038141-nmi0406gc6vtmfupm4mbbcls28k5p5jr.apps.googleusercontent.com",
          "client_type": 3
        }
      ],
      "api_key": [
        {
          "current_key": "AIzaSyAURZ4sUCb_Hqk45ZBFRwVqC_sSjdDGtJo"
        }
      ],
      "services": {
        "analytics_service": {
          "status": 1
        },
        "appinvite_service": {
          "status": 1,
          "other_platform_oauth_client": []
        },
        "ads_service": {
          "status": 2
        }
      }
    },
    {
      "client_info": {
        "mobilesdk_app_id": "1:241663038141:android:771954a7e8123964",
        "android_client_info": {
          "package_name": "com.iserveu.pragati"
        }
      },
      "oauth_client": [
        {
          "client_id": "241663038141-nmi0406gc6vtmfupm4mbbcls28k5p5jr.apps.googleusercontent.com",
          "client_type": 3
        }
      ],
      "api_key": [
        {
          "current_key": "AIzaSyAURZ4sUCb_Hqk45ZBFRwVqC_sSjdDGtJo"
        }
      ],
      "services": {
        "analytics_service": {
          "status": 1
        },
        "appinvite_service": {
          "status": 1,
          "other_platform_oauth_client": []
        },
        "ads_service": {
          "status": 2
        }
      }
    },
    {
      "client_info": {
        "mobilesdk_app_id": "1:241663038141:android:d3a98738254cc814",
        "android_client_info": {
          "package_name": "com.iserveu.realpay"
        }
      },
      "oauth_client": [
        {
          "client_id": "241663038141-nmi0406gc6vtmfupm4mbbcls28k5p5jr.apps.googleusercontent.com",
          "client_type": 3
        }
      ],
      "api_key": [
        {
          "current_key": "AIzaSyAURZ4sUCb_Hqk45ZBFRwVqC_sSjdDGtJo"
        }
      ],
      "services": {
        "analytics_service": {
          "status": 1
        },
        "appinvite_service": {
          "status": 1,
          "other_platform_oauth_client": []
        },
        "ads_service": {
          "status": 2
        }
      }
    },
    {
      "client_info": {
        "mobilesdk_app_id": "1:241663038141:android:d28991273450b7a0",
        "android_client_info": {
          "package_name": "com.iserveu.rekha"
        }
      },
      "oauth_client": [
        {
          "client_id": "241663038141-nmi0406gc6vtmfupm4mbbcls28k5p5jr.apps.googleusercontent.com",
          "client_type": 3
        }
      ],
      "api_key": [
        {
          "current_key": "AIzaSyAURZ4sUCb_Hqk45ZBFRwVqC_sSjdDGtJo"
        }
      ],
      "services": {
        "analytics_service": {
          "status": 1
        },
        "appinvite_service": {
          "status": 1,
          "other_platform_oauth_client": []
        },
        "ads_service": {
          "status": 2
        }
      }
    },
    {
      "client_info": {
        "mobilesdk_app_id": "1:241663038141:android:a6a636baa9670423",
        "android_client_info": {
          "package_name": "com.iserveu.samriddhi"
        }
      },
      "oauth_client": [
        {
          "client_id": "241663038141-nmi0406gc6vtmfupm4mbbcls28k5p5jr.apps.googleusercontent.com",
          "client_type": 3
        }
      ],
      "api_key": [
        {
          "current_key": "AIzaSyAURZ4sUCb_Hqk45ZBFRwVqC_sSjdDGtJo"
        }
      ],
      "services": {
        "analytics_service": {
          "status": 1
        },
        "appinvite_service": {
          "status": 1,
          "other_platform_oauth_client": []
        },
        "ads_service": {
          "status": 2
        }
      }
    },
    {
      "client_info": {
        "mobilesdk_app_id": "1:241663038141:android:1c7ec7a7bbddaa6d",
        "android_client_info": {
          "package_name": "com.iserveu.saralpay"
        }
      },
      "oauth_client": [
        {
          "client_id": "241663038141-nmi0406gc6vtmfupm4mbbcls28k5p5jr.apps.googleusercontent.com",
          "client_type": 3
        }
      ],
      "api_key": [
        {
          "current_key": "AIzaSyAURZ4sUCb_Hqk45ZBFRwVqC_sSjdDGtJo"
        }
      ],
      "services": {
        "analytics_service": {
          "status": 1
        },
        "appinvite_service": {
          "status": 1,
          "other_platform_oauth_client": []
        },
        "ads_service": {
          "status": 2
        }
      }
    },
    {
      "client_info": {
        "mobilesdk_app_id": "1:241663038141:android:f293f88e703102c7",
        "android_client_info": {
          "package_name": "com.iserveu.saservice"
        }
      },
      "oauth_client": [
        {
          "client_id": "241663038141-nmi0406gc6vtmfupm4mbbcls28k5p5jr.apps.googleusercontent.com",
          "client_type": 3
        }
      ],
      "api_key": [
        {
          "current_key": "AIzaSyAURZ4sUCb_Hqk45ZBFRwVqC_sSjdDGtJo"
        }
      ],
      "services": {
        "analytics_service": {
          "status": 1
        },
        "appinvite_service": {
          "status": 1,
          "other_platform_oauth_client": []
        },
        "ads_service": {
          "status": 2
        }
      }
    },
    {
      "client_info": {
        "mobilesdk_app_id": "1:241663038141:android:d91f570bb1d052bf",
        "android_client_info": {
          "package_name": "com.iserveu.sps"
        }
      },
      "oauth_client": [
        {
          "client_id": "241663038141-nmi0406gc6vtmfupm4mbbcls28k5p5jr.apps.googleusercontent.com",
          "client_type": 3
        }
      ],
      "api_key": [
        {
          "current_key": "AIzaSyAURZ4sUCb_Hqk45ZBFRwVqC_sSjdDGtJo"
        }
      ],
      "services": {
        "analytics_service": {
          "status": 1
        },
        "appinvite_service": {
          "status": 1,
          "other_platform_oauth_client": []
        },
        "ads_service": {
          "status": 2
        }
      }
    }
  ],
  "configuration_version": "1"
}